# Blender 3.5.0
# www.blender.org
mtllib meta.mtl
o Meta
v 14.980614 0.132435 -17.233149
v 13.857593 0.134733 -14.903310
v 11.335238 0.124546 -14.299458
v 9.304724 0.138492 -15.935843
v 9.298656 0.133960 -18.534801
v 11.330221 0.125854 -20.173534
v 13.872661 0.126211 -19.585613
v 12.982108 7.623927 -17.233150
v 11.997768 7.070271 -14.905172
v 9.818652 5.802893 -14.350995
v 8.042254 4.773103 -15.926225
v 8.059294 4.788520 -18.528830
v 9.818520 5.810843 -20.127371
v 11.979856 7.035112 -19.525324
v 7.510843 13.133424 -17.233150
v 6.923078 12.099008 -14.942446
v 5.662541 9.942699 -14.273331
v 4.638311 8.165988 -15.931499
v 4.662620 8.197789 -18.523993
v 5.666807 9.947394 -20.161924
v 6.957432 12.166574 -19.615265
v 0.013654 15.081245 -17.233150
v 0.005777 14.024222 -14.861625
v 0.000001 11.464027 -14.307517
v 0.004650 9.411939 -15.921743
v 0.000001 9.434333 -18.527740
v -0.002908 11.475492 -20.082214
v 0.000001 14.008018 -19.596800
v -7.520015 13.197284 -17.233150
v -6.935350 12.144817 -14.887126
v -5.662954 9.943114 -14.277283
v -4.658762 8.221848 -15.952938
v -4.662385 8.197557 -18.524172
v -5.666198 9.946307 -20.158421
v -6.950830 12.159975 -19.604376
v -12.970892 7.632440 -17.233150
v -11.988539 7.072090 -14.916389
v -9.817677 5.808439 -14.333012
v -8.051610 4.780800 -15.931648
v -8.061401 4.790630 -18.527210
v -9.824285 5.804255 -20.141588
v -11.996875 7.052133 -19.553400
v -15.035602 0.131762 -17.233149
v -13.858648 0.134527 -14.902026
v -11.331949 0.130801 -14.304931
v -9.296208 0.131200 -15.931499
v -9.307243 0.140572 -18.529024
v -11.336291 0.121667 -20.170195
v -13.848442 0.136537 -19.551867
v 14.435073 0.132321 -16.060474
v 10.312403 0.127931 -15.116465
v 10.318220 0.138434 -19.341297
v 14.430097 0.136125 -18.403620
v 14.040811 3.881638 -17.233150
v 10.908504 6.430228 -14.616313
v 2.314225 8.769001 -15.910414
v 8.050349 4.780070 -17.233150
v 10.915050 6.434006 -19.875624
v 7.200620 12.604039 -16.075686
v 5.155937 9.062541 -15.115882
v 5.152066 9.055837 -19.361261
v 7.214437 12.627970 -18.403040
v 3.736768 14.078005 -17.233150
v 0.000001 12.731978 -14.603681
v 0.000001 9.425355 -17.233150
v 2.833045 10.705264 -20.159615
v -7.211231 12.622420 -16.066143
v -5.159096 9.068017 -15.124736
v -5.160716 9.070824 -19.337027
v -7.211413 12.622735 -18.400322
v -10.303273 10.435474 -17.233150
v -10.912347 6.432448 -14.601262
v -8.050413 4.780109 -17.233150
v -10.911990 6.432242 -19.863644
v -14.442488 0.126654 -16.057190
v -10.313238 0.129439 -15.117689
v -10.317483 0.137103 -19.342381
v -14.432889 0.133992 -18.404856
v 10.571840 2.961110 -14.298043
v -2.833140 10.705627 -14.309216
v 8.670312 2.453176 -18.537075
v -8.659389 2.444166 -15.923008
v -2.327026 8.816783 -18.529022
v 12.988588 3.590507 -19.636099
v 2.322172 8.798658 -18.539211
v -3.458027 13.037735 -19.535427
v 9.455936 9.588136 -14.916969
v -9.454943 9.587145 -14.918606
v 6.360572 6.492771 -15.939594
v -6.346938 6.479138 -15.929123
v 7.743522 7.875721 -20.126268
v -7.745674 7.877875 -20.105757
v -10.573702 2.966439 -20.155153
v 2.834711 10.711479 -14.350031
v -8.943823 5.295919 -19.328617
v 12.601393 0.132365 -14.598207
v 9.295341 0.130221 -17.233150
v 12.601486 0.132108 -19.868391
v 12.503119 7.350878 -16.059446
v 8.941935 5.294828 -15.134627
v 8.939505 5.293424 -19.335602
v 12.508022 7.353708 -18.409397
v 10.268424 10.400623 -17.233150
v 6.300544 11.045061 -14.599247
v 4.642975 8.174066 -17.233150
v 6.299728 11.043647 -19.861519
v 0.000001 14.562235 -16.062740
v 0.000001 10.447480 -15.120658
v 0.000001 10.447576 -19.345509
v 0.000001 14.584888 -18.413746
v -3.753054 14.138791 -17.233150
v -6.300162 11.044403 -14.601830
v -4.648600 8.183813 -17.233150
v -6.299069 11.042510 -19.857059
v -12.473358 7.333699 -16.074894
v -8.924274 5.284634 -15.106069
v 3.460822 13.048159 -19.548018
v -12.506289 7.352712 -18.408499
v -13.996111 3.882189 -17.233150
v -12.600130 0.135815 -14.602221
v -9.310757 0.147612 -17.233150
v -12.598902 0.139173 -19.860167
v 12.987357 3.590750 -14.831697
v -12.962589 3.595629 -19.604496
v -3.469835 13.081804 -14.877655
v 8.660716 2.445260 -15.923762
v 0.000001 12.741787 -19.895891
v -2.333699 8.841687 -15.951282
v 10.574679 2.969235 -20.148272
v -2.835135 10.713070 -20.105179
v 7.741572 7.873771 -14.321453
v -8.668160 2.451402 -18.538300
v -7.736974 7.869175 -14.277664
v 6.376966 6.509164 -18.514114
v -6.343514 6.475715 -18.539806
v -10.574778 2.969517 -14.318717
v 9.445081 9.577280 -19.531422
v -9.482427 9.614629 -19.593033
v 3.468609 13.077219 -14.883191
v -12.962189 3.595708 -14.862291
v -13.462533 3.740316 -18.410919
v -11.766273 3.282897 -19.873516
v -9.613368 2.700278 -19.358662
v -8.663437 2.447506 -17.230654
v -9.618452 2.708405 -15.123022
v -11.765623 3.285459 -14.600143
v -13.494676 3.737649 -16.040424
v -9.878831 10.011032 -18.403975
v -8.613952 8.746154 -19.848913
v -7.038373 7.170574 -19.335360
v -6.320558 6.452758 -17.234465
v -7.050997 7.183198 -15.121675
v -8.596585 8.728786 -14.595059
v -9.875386 10.007587 -16.078299
v -3.606249 13.590909 -18.385550
v -3.146637 11.875614 -19.821064
v -2.581624 9.766953 -19.314100
v -2.334924 8.846258 -17.240152
v -2.585167 9.780177 -15.139901
v -3.150144 11.888700 -14.611448
v -3.615388 13.625016 -16.048395
v 3.601634 13.573678 -18.395628
v 3.146676 11.875751 -19.850368
v 2.579759 9.759986 -19.337534
v 2.319807 8.789832 -17.224812
v 2.575961 9.745813 -15.138473
v 3.150979 11.891809 -14.625733
v 3.602256 13.575999 -16.058939
v 9.846378 9.978578 -18.375540
v 8.596910 8.729109 -19.841640
v 7.064750 7.196949 -19.311079
v 6.372565 6.504764 -17.226854
v 7.038378 7.170577 -15.104856
v 8.600773 8.732972 -14.609307
v 9.871822 10.004021 -16.068789
v 13.526242 3.735107 -18.440048
v 11.788869 3.272670 -19.916571
v 9.619695 2.708005 -19.347095
v 8.675108 2.457133 -17.230419
v 9.626467 2.714827 -15.126983
v 11.771859 3.283632 -14.590952
v 13.519362 3.735752 -16.029942
v -12.473358 11.333698 -16.074894
v -12.506289 11.352712 -18.408499
v -9.878831 14.011032 -18.403975
v -9.875386 14.007587 -16.078299
v 13.920177 12.769917 -18.422503
v 12.503119 11.350878 -16.059446
v 12.508022 11.353708 -18.409397
v 11.258533 15.394787 -18.388645
v 9.846378 13.978578 -18.375540
v 9.871822 14.004021 -16.068789
v 13.915274 12.767087 -16.072552
v 11.283977 15.420230 -16.081894
v -13.934678 12.752493 -18.390600
v -11.307220 15.410812 -18.386076
v -13.901747 12.733479 -16.056995
v -11.303775 15.407368 -16.060400
v -13.537831 13.149556 -18.040476
v -11.698610 15.010380 -18.037308
v -13.514779 13.136246 -16.406952
v -11.696199 15.007969 -16.409336
v -13.537831 13.149556 -18.040476
v -11.698610 15.010380 -18.037308
v -13.514779 13.136246 -16.406952
v -11.696199 15.007969 -16.409336
v -12.109443 11.749776 -18.058374
v -10.270222 13.610600 -18.055206
v -12.086390 11.736465 -16.424850
v -10.267811 13.608189 -16.427235
v 11.659320 15.002752 -18.044472
v 11.677131 15.020562 -16.429745
v 13.519038 13.163363 -16.423206
v 13.522470 13.165344 -18.068171
v 10.247166 13.586543 -18.031366
v 10.264977 13.604353 -16.416639
v 12.106884 11.747153 -16.410101
v 12.110316 11.749135 -18.055065
vn 0.8679 0.2516 0.4282
vn 0.2091 0.0692 0.9754
vn -0.6005 -0.1578 0.7839
vn -0.9666 -0.2564 -0.0020
vn -0.6089 -0.1565 -0.7776
vn 0.2337 0.0888 -0.9683
vn 0.8782 0.2495 -0.4080
vn 0.6252 0.6395 0.4474
vn 0.1794 0.1665 0.9696
vn -0.4533 -0.4577 0.7649
vn -0.6980 -0.7160 -0.0143
vn -0.4379 -0.4613 -0.7717
vn 0.1700 0.1453 -0.9747
vn 0.6323 0.6309 -0.4495
vn 0.2430 0.8843 0.3988
vn 0.0686 0.2185 0.9734
vn -0.1626 -0.5947 0.7873
vn -0.2641 -0.9645 -0.0068
vn -0.1708 -0.5973 -0.7836
vn 0.0772 0.2294 -0.9703
vn 0.2446 0.8860 -0.3939
vn -0.2415 0.8734 0.4228
vn -0.0582 0.2415 0.9687
vn 0.1723 -0.6261 0.7605
vn 0.2658 -0.9640 0.0053
vn 0.1759 -0.6104 -0.7723
vn -0.0396 0.2138 -0.9761
vn -0.2218 0.8599 -0.4597
vn -0.6396 0.6330 0.4360
vn -0.1709 0.1587 0.9724
vn 0.4538 -0.4486 0.7700
vn 0.6975 -0.7163 -0.0183
vn 0.4421 -0.4404 -0.7814
vn -0.1633 0.1562 -0.9741
vn -0.8740 0.2245 0.4310
vn -0.2212 0.0607 0.9733
vn 0.6103 -0.1666 0.7744
vn 0.9632 -0.2687 -0.0001
vn 0.6129 -0.1664 -0.7725
vn -0.2236 0.0485 -0.9735
vn -0.8690 0.2370 -0.4344
vn 0.0009 -1.0000 -0.0005
vn -0.0001 -1.0000 -0.0002
vn -0.8785 0.2366 -0.4150
vn -0.8736 0.2407 -0.4229
vn -0.8783 0.2272 -0.4207
vn -0.2188 0.0693 -0.9733
vn -0.2139 0.0611 -0.9749
vn -0.2261 0.0605 -0.9722
vn 0.6129 -0.1538 -0.7750
vn 0.6196 -0.1538 -0.7697
vn 0.6183 -0.1744 -0.7663
vn 0.9675 -0.2526 -0.0072
vn 0.9675 -0.2530 -0.0013
vn 0.9633 -0.2682 -0.0089
vn 0.6153 -0.1644 0.7710
vn 0.5999 -0.1612 0.7837
vn 0.6123 -0.1614 0.7740
vn -0.2104 0.0591 0.9758
vn -0.2186 0.0684 0.9734
vn -0.2168 0.0506 0.9749
vn -0.8709 0.2510 0.4225
vn -0.8746 0.2456 0.4180
vn -0.8764 0.2357 0.4199
vn -0.6216 0.6308 -0.4644
vn -0.6429 0.6476 -0.4090
vn -0.6422 0.6296 -0.4373
vn -0.1442 0.1404 -0.9795
vn -0.1641 0.1516 -0.9747
vn -0.1466 0.1575 -0.9766
vn 0.4384 -0.4478 -0.7793
vn 0.4555 -0.4445 -0.7713
vn 0.4405 -0.4526 -0.7753
vn 0.7173 -0.6965 -0.0200
vn 0.7186 -0.6949 0.0275
vn 0.7004 -0.7136 0.0148
vn 0.4610 -0.4493 0.7653
vn 0.4638 -0.4641 0.7546
vn 0.4450 -0.4522 0.7730
vn -0.1792 0.1798 0.9672
vn -0.1750 0.1681 0.9701
vn -0.1797 0.1803 0.9671
vn -0.6381 0.6358 0.4342
vn -0.6212 0.6283 0.4684
vn -0.2333 0.8825 -0.4083
vn -0.2463 0.8660 -0.4351
vn -0.2239 0.8801 -0.4187
vn -0.0821 0.2233 -0.9713
vn -0.0583 0.1827 -0.9814
vn -0.0475 0.2320 -0.9716
vn 0.1565 -0.5917 -0.7908
vn 0.1572 -0.6122 -0.7749
vn 0.1662 -0.6102 -0.7746
vn 0.2486 -0.9686 0.0084
vn 0.2389 -0.9710 -0.0073
vn 0.2664 -0.9638 0.0135
vn 0.1467 -0.6143 0.7753
vn 0.1616 -0.6255 0.7633
vn 0.1785 -0.6299 0.7559
vn -0.0628 0.2290 0.9714
vn -0.0572 0.1991 0.9783
vn -0.0568 0.2110 0.9758
vn -0.2331 0.8791 0.4156
vn -0.2253 0.8879 0.4012
vn -0.2297 0.8659 0.4444
vn 0.2244 0.8785 -0.4218
vn 0.2233 0.8856 -0.4072
vn 0.2470 0.8705 -0.4258
vn 0.0438 0.2146 -0.9757
vn 0.0604 0.2357 -0.9700
vn 0.0476 0.1931 -0.9800
vn -0.1692 -0.6119 -0.7727
vn -0.1662 -0.6206 -0.7663
vn -0.1656 -0.6116 -0.7736
vn -0.2524 -0.9675 -0.0142
vn -0.2537 -0.9672 -0.0117
vn -0.2661 -0.9639 -0.0127
vn -0.1575 -0.5995 0.7847
vn -0.1778 -0.6092 0.7728
vn -0.1549 -0.6086 0.7782
vn 0.0471 0.2361 0.9706
vn 0.0688 0.2314 0.9704
vn 0.0594 0.1959 0.9788
vn 0.2457 0.8722 0.4229
vn 0.2281 0.8736 0.4299
vn 0.2400 0.8844 0.4003
vn -0.0036 -0.0000 1.0000
vn 0.6261 0.6321 -0.4565
vn 0.6558 0.6322 -0.4126
vn 0.1866 0.1928 -0.9633
vn 0.1489 0.1579 -0.9762
vn 0.1727 0.1599 -0.9719
vn -0.4533 -0.4462 -0.7716
vn -0.4566 -0.4397 -0.7734
vn -0.4451 -0.4680 -0.7634
vn -0.7159 -0.6982 -0.0072
vn -0.7158 -0.6982 -0.0106
vn -0.6956 -0.7184 -0.0100
vn -0.4500 -0.4522 0.7700
vn -0.4325 -0.4480 0.7824
vn -0.4455 -0.4528 0.7724
vn 0.1604 0.1526 0.9752
vn 0.1676 0.1695 0.9712
vn 0.1835 0.1870 0.9651
vn 0.6324 0.6345 0.4443
vn -0.0127 -0.0000 -0.9999
vn 0.6270 0.6389 0.4457
vn 0.8852 0.2201 -0.4098
vn 0.8810 0.2179 -0.4199
vn 0.8577 0.2551 -0.4465
vn 0.2171 0.0412 -0.9753
vn 0.2049 0.0500 -0.9775
vn 0.1815 0.0594 -0.9816
vn -0.6180 -0.1632 -0.7690
vn -0.6123 -0.1675 -0.7727
vn -0.6160 -0.1586 -0.7716
vn -0.9657 -0.2595 0.0006
vn -0.9647 -0.2632 -0.0022
vn -0.9660 -0.2582 -0.0102
vn -0.6116 -0.1665 0.7735
vn -0.6207 -0.1646 0.7666
vn -0.6179 -0.1552 0.7708
vn 0.2255 0.0586 0.9725
vn 0.2104 0.0425 0.9767
vn 0.1962 0.0695 0.9781
vn 0.8782 0.2160 0.4267
vn 0.8844 0.2215 0.4108
vn 0.8763 0.2488 0.4127
vn 0.0013 -0.0000 1.0000
vn 0.0017 -0.0000 -1.0000
vn 0.9984 -0.0562 -0.0016
vn -0.9980 0.0623 0.0146
vn -0.6999 -0.7142 0.0041
vn 0.7060 0.7081 -0.0156
vn 0.9981 0.0615 0.0022
vn -0.9985 -0.0539 0.0116
vn -0.7081 0.7061 -0.0000
vn 0.0029 0.0064 1.0000
vn -0.0110 0.0017 -0.9999
vn 0.7081 -0.7061 0.0006
vn -0.7142 0.6999 0.0021
vn 0.6999 0.7142 -0.0000
vn 0.0071 -0.0056 1.0000
vn -0.0055 0.0072 -1.0000
vn -0.0000 1.0000 -0.0000
vn -0.7112 0.7029 0.0089
vn -0.7141 0.6998 0.0158
vn -0.7172 0.6968 0.0090
vn -0.0071 0.0056 -1.0000
vn -0.7142 0.6999 0.0089
vn -0.6999 -0.7142 -0.0000
vn 0.0055 -0.0072 1.0000
vn 0.6999 0.7142 -0.0041
vn -0.7081 0.7061 -0.0006
vn 0.7100 0.7041 -0.0065
vn 0.7061 0.7081 0.0023
vn 0.7021 0.7120 -0.0066
vn 0.7061 0.7081 -0.0066
vn -0.0029 -0.0064 -1.0000
vn 0.0110 -0.0017 0.9999
vn 0.7081 -0.7061 -0.0000
vt 0.500000 0.571429
vt 0.500000 0.714286
vt 0.500000 0.857143
vt 0.500000 -0.000000
vt 0.500000 1.000000
vt 0.500000 0.142857
vt 0.500000 0.285714
vt 0.500000 0.428571
vt 0.583333 0.571429
vt 0.583333 0.714286
vt 0.583333 0.857143
vt 0.583333 1.000000
vt 0.583333 -0.000000
vt 0.583333 0.142857
vt 0.583333 0.285714
vt 0.583333 0.428571
vt 0.666667 0.571429
vt 0.666667 0.714286
vt 0.666667 0.857143
vt 0.666667 1.000000
vt 0.666667 -0.000000
vt 0.666667 0.142857
vt 0.666667 0.285714
vt 0.666667 0.428571
vt 0.750000 0.571429
vt 0.750000 0.714286
vt 0.750000 0.857143
vt 0.750000 1.000000
vt 0.750000 -0.000000
vt 0.750000 0.142857
vt 0.750000 0.285714
vt 0.750000 0.428571
vt 0.833333 0.571429
vt 0.833333 0.714286
vt 0.833333 0.857143
vt 0.833333 1.000000
vt 0.833333 -0.000000
vt 0.833333 0.142857
vt 0.833333 0.285714
vt 0.833333 0.428571
vt 0.916667 0.571429
vt 0.916667 0.714286
vt 0.916667 0.857143
vt 0.916667 1.000000
vt 0.916667 -0.000000
vt 0.916667 0.142857
vt 0.916667 0.285714
vt 0.916667 0.428571
vt 1.000000 0.571429
vt 1.000000 0.714286
vt 1.000000 0.857143
vt 1.000000 1.000000
vt 1.000000 -0.000000
vt 1.000000 0.142857
vt 1.000000 0.285714
vt 1.000000 0.428571
vt 0.500000 0.642857
vt 0.500000 0.428571
vt 0.500000 0.928571
vt 0.500000 0.214286
vt 0.500000 0.500000
vt 0.541667 0.571429
vt 0.583333 0.785714
vt 0.708333 -0.000000
vt 0.708333 1.000000
vt 0.583333 0.071429
vt 0.583333 0.357143
vt 0.666667 0.642857
vt 0.666667 0.928571
vt 0.666667 0.214286
vt 0.666667 0.500000
vt 0.708333 0.571429
vt 0.750000 0.785714
vt 0.750000 0.071429
vt 0.708333 0.285714
vt 0.833333 0.642857
vt 0.833333 0.928571
vt 0.833333 0.214286
vt 0.833333 0.500000
vt 0.875000 0.571429
vt 0.916667 0.785714
vt 0.916667 0.071429
vt 0.916667 0.357143
vt 1.000000 0.642857
vt 1.000000 0.428571
vt 1.000000 0.928571
vt 1.000000 0.214286
vt 1.000000 0.500000
vt 0.541667 0.857143
vt 0.791667 0.857143
vt 0.541667 0.142857
vt 0.958333 -0.000000
vt 0.958333 1.000000
vt 0.791667 0.142857
vt 0.541667 0.428571
vt 0.708333 0.142857
vt 0.791667 0.428571
vt 0.625000 0.714286
vt 0.875000 0.714286
vt 0.625000 -0.000000
vt 0.625000 1.000000
vt 0.875000 -0.000000
vt 0.875000 1.000000
vt 0.625000 0.285714
vt 0.875000 0.285714
vt 0.958333 0.285714
vt 0.708333 0.857143
vt 0.916667 0.214286
vt 0.500000 0.785714
vt 0.500000 0.071429
vt 0.500000 0.357143
vt 0.583333 0.642857
vt 0.583333 0.928571
vt 0.583333 0.214286
vt 0.583333 0.500000
vt 0.625000 0.571429
vt 0.666667 0.785714
vt 0.666667 0.071429
vt 0.666667 0.357143
vt 0.750000 0.642857
vt 0.750000 0.928571
vt 0.750000 0.214286
vt 0.750000 0.500000
vt 0.791667 0.571429
vt 0.833333 0.785714
vt 0.833333 0.071429
vt 0.833333 0.357143
vt 0.916667 0.642857
vt 0.916667 0.928571
vt 0.708333 0.428571
vt 0.916667 0.500000
vt 0.958333 0.571429
vt 1.000000 0.785714
vt 1.000000 0.071429
vt 1.000000 0.357143
vt 0.541667 0.714286
vt 0.958333 0.428571
vt 0.791667 0.714286
vt 0.541667 -0.000000
vt 0.541667 1.000000
vt 0.750000 0.357143
vt 0.791667 -0.000000
vt 0.791667 1.000000
vt 0.541667 0.285714
vt 0.791667 0.285714
vt 0.625000 0.857143
vt 0.958333 0.142857
vt 0.875000 0.857143
vt 0.625000 0.142857
vt 0.875000 0.142857
vt 0.958333 0.857143
vt 0.625000 0.428571
vt 0.875000 0.428571
vt 0.708333 0.714286
vt 0.958333 0.714286
vt 0.958333 0.500000
vt 0.958333 0.357143
vt 0.958333 0.214286
vt 0.958333 0.071429
vt 0.958333 0.928571
vt 0.958333 0.785714
vt 0.958333 0.642857
vt 0.875000 0.500000
vt 0.875000 0.357143
vt 0.875000 0.214286
vt 0.875000 0.071429
vt 0.875000 0.928571
vt 0.875000 0.785714
vt 0.875000 0.642857
vt 0.791667 0.500000
vt 0.791667 0.357143
vt 0.791667 0.214286
vt 0.791667 0.071429
vt 0.791667 0.928571
vt 0.791667 0.785714
vt 0.791667 0.642857
vt 0.708333 0.500000
vt 0.708333 0.357143
vt 0.708333 0.214286
vt 0.708333 0.071429
vt 0.708333 0.928571
vt 0.708333 0.785714
vt 0.708333 0.642857
vt 0.625000 0.500000
vt 0.625000 0.357143
vt 0.625000 0.214286
vt 0.625000 0.071429
vt 0.625000 0.928571
vt 0.625000 0.785714
vt 0.625000 0.642857
vt 0.541667 0.500000
vt 0.541667 0.357143
vt 0.541667 0.214286
vt 0.541667 0.071429
vt 0.541667 0.928571
vt 0.541667 0.785714
vt 0.541667 0.642857
vt 0.916667 0.642857
vt 0.916667 0.500000
vt 0.875000 0.500000
vt 0.875000 0.642857
vt 0.583333 0.500000
vt 0.583333 0.642857
vt 0.583333 0.500000
vt 0.625000 0.500000
vt 0.625000 0.500000
vt 0.625000 0.642857
vt 0.583333 0.642857
vt 0.625000 0.642857
vt 0.916667 0.500000
vt 0.875000 0.500000
vt 0.916667 0.642857
vt 0.875000 0.642857
vt 0.916667 0.500000
vt 0.875000 0.500000
vt 0.916667 0.642857
vt 0.875000 0.642857
vt 0.916667 0.500000
vt 0.875000 0.500000
vt 0.916667 0.642857
vt 0.875000 0.642857
vt 0.916667 0.500000
vt 0.875000 0.500000
vt 0.916667 0.642857
vt 0.875000 0.642857
vt 0.625000 0.500000
vt 0.625000 0.642857
vt 0.583333 0.642857
vt 0.583333 0.500000
vt 0.625000 0.500000
vt 0.625000 0.642857
vt 0.583333 0.642857
vt 0.583333 0.500000
s 0
usemtl Material.002
f 182/197/1 99/112/1 9/10/1 123/136/1
f 181/196/2 55/63/2 10/11/2 79/89/2
f 180/195/3 100/113/3 11/12/3 126/140/3
f 179/194/4 57/66/4 12/14/4 81/91/4
f 178/193/5 101/114/5 13/15/5 129/144/5
f 177/192/6 58/67/6 14/16/6 84/95/6
f 176/191/7 102/115/7 8/9/7 54/62/7
f 175/190/8 59/68/8 16/18/8 87/98/8
f 174/189/9 104/117/9 17/19/9 131/146/9
f 173/188/10 60/69/10 18/20/10 89/101/10
f 172/187/11 105/118/11 19/22/11 134/149/11
f 171/186/12 61/70/12 20/23/12 91/104/12
f 170/185/13 106/119/13 21/24/13 137/152/13
f 169/184/14 62/71/14 15/17/14 103/116/14
f 168/183/15 107/120/15 23/26/15 139/154/15
f 167/182/16 64/73/16 24/27/16 94/107/16
f 166/181/17 108/121/17 25/28/17 56/65/17
f 165/180/18 65/74/18 26/30/18 85/96/18
f 164/179/19 109/122/19 27/31/19 66/75/19
f 163/178/20 127/141/20 28/32/20 117/130/20
f 162/177/21 110/123/21 22/25/21 63/72/21
f 161/176/22 67/76/22 30/34/22 125/138/22
f 160/175/23 112/125/23 31/35/23 80/90/23
f 159/174/24 68/77/24 32/36/24 128/143/24
f 158/173/25 113/126/25 33/38/25 83/94/25
f 157/172/26 69/78/26 34/39/26 130/145/26
f 156/171/27 114/127/27 35/40/27 86/97/27
f 155/170/28 70/79/28 29/33/28 111/124/28
f 154/169/29 115/128/29 37/42/29 88/99/29
f 153/168/30 72/81/30 38/43/30 133/148/30
f 152/167/31 116/129/31 39/44/31 90/103/31
f 151/166/32 73/82/32 40/46/32 135/150/32
f 150/165/33 95/108/33 41/47/33 92/105/33
f 149/164/34 74/83/34 42/48/34 138/153/34
f 147/162/35 75/84/35 44/50/35 140/155/35
f 146/161/36 120/133/36 45/51/36 136/151/36
f 145/160/37 76/86/37 46/52/37 82/93/37
f 144/159/38 121/134/38 47/54/38 132/147/38
f 143/158/39 77/87/39 48/55/39 93/106/39
f 142/157/40 122/135/40 49/56/40 124/137/40
f 141/156/41 78/88/41 43/49/41 119/132/41
f 43/49/42 78/88/42 49/56/42 122/135/42 48/55/42 77/87/42 47/54/42 121/134/42 46/53/42 76/85/42 45/51/42 120/133/42 44/50/42 75/84/42
f 1/1/43 50/57/43 2/2/43 96/109/43 3/3/43 51/58/43 4/4/43 97/110/43 5/6/43 52/60/43 6/7/43 98/111/43 7/8/43 53/61/43
f 118/131/44 141/156/44 119/132/44 36/41/44
f 42/48/45 124/137/45 141/156/45 118/131/45
f 124/137/46 49/56/46 78/88/46 141/156/46
f 74/83/47 142/157/47 124/137/47 42/48/47
f 41/47/48 93/106/48 142/157/48 74/83/48
f 93/106/49 48/55/49 122/135/49 142/157/49
f 95/108/50 143/158/50 93/106/50 41/47/50
f 40/46/51 132/147/51 143/158/51 95/108/51
f 132/147/52 47/54/52 77/87/52 143/158/52
f 73/82/53 144/159/53 132/147/53 40/46/53
f 39/45/54 82/92/54 144/159/54 73/82/54
f 82/92/55 46/53/55 121/134/55 144/159/55
f 116/129/56 145/160/56 82/93/56 39/44/56
f 38/43/57 136/151/57 145/160/57 116/129/57
f 136/151/58 45/51/58 76/86/58 145/160/58
f 72/81/59 146/161/59 136/151/59 38/43/59
f 37/42/60 140/155/60 146/161/60 72/81/60
f 140/155/61 44/50/61 120/133/61 146/161/61
f 115/128/62 147/162/62 140/155/62 37/42/62
f 36/41/63 119/132/63 147/162/63 115/128/63
f 119/132/64 43/49/64 75/84/64 147/162/64
f 70/79/65 148/163/65 71/80/65 29/33/65
f 35/40/66 138/153/66 148/163/66 70/79/66
f 138/153/67 42/48/67 118/131/67 148/163/67
f 114/127/68 149/164/68 138/153/68 35/40/68
f 34/39/69 92/105/69 149/164/69 114/127/69
f 92/105/70 41/47/70 74/83/70 149/164/70
f 69/78/71 150/165/71 92/105/71 34/39/71
f 33/38/72 135/150/72 150/165/72 69/78/72
f 135/150/73 40/46/73 95/108/73 150/165/73
f 113/126/74 151/166/74 135/150/74 33/38/74
f 32/37/75 90/102/75 151/166/75 113/126/75
f 90/102/76 39/45/76 73/82/76 151/166/76
f 68/77/77 152/167/77 90/103/77 32/36/77
f 31/35/78 133/148/78 152/167/78 68/77/78
f 133/148/79 38/43/79 116/129/79 152/167/79
f 112/125/80 153/168/80 133/148/80 31/35/80
f 30/34/81 88/99/81 153/168/81 112/125/81
f 88/99/82 37/42/82 72/81/82 153/168/82
f 67/76/83 154/169/83 88/99/83 30/34/83
f 29/33/84 71/80/84 154/169/84 67/76/84
f 110/123/85 155/170/85 111/124/85 22/25/85
f 28/32/86 86/97/86 155/170/86 110/123/86
f 86/97/87 35/40/87 70/79/87 155/170/87
f 127/141/88 156/171/88 86/97/88 28/32/88
f 27/31/89 130/145/89 156/171/89 127/141/89
f 130/145/90 34/39/90 114/127/90 156/171/90
f 109/122/91 157/172/91 130/145/91 27/31/91
f 26/30/92 83/94/92 157/172/92 109/122/92
f 83/94/93 33/38/93 69/78/93 157/172/93
f 65/74/94 158/173/94 83/94/94 26/30/94
f 25/29/95 128/142/95 158/173/95 65/74/95
f 128/142/96 32/37/96 113/126/96 158/173/96
f 108/121/97 159/174/97 128/143/97 25/28/97
f 24/27/98 80/90/98 159/174/98 108/121/98
f 80/90/99 31/35/99 68/77/99 159/174/99
f 64/73/100 160/175/100 80/90/100 24/27/100
f 23/26/101 125/138/101 160/175/101 64/73/101
f 125/138/102 30/34/102 112/125/102 160/175/102
f 107/120/103 161/176/103 125/138/103 23/26/103
f 22/25/104 111/124/104 161/176/104 107/120/104
f 111/124/105 29/33/105 67/76/105 161/176/105
f 62/71/106 162/177/106 63/72/106 15/17/106
f 21/24/107 117/130/107 162/177/107 62/71/107
f 117/130/108 28/32/108 110/123/108 162/177/108
f 106/119/109 163/178/109 117/130/109 21/24/109
f 20/23/110 66/75/110 163/178/110 106/119/110
f 66/75/111 27/31/111 127/141/111 163/178/111
f 61/70/112 164/179/112 66/75/112 20/23/112
f 19/22/113 85/96/113 164/179/113 61/70/113
f 85/96/114 26/30/114 109/122/114 164/179/114
f 105/118/115 165/180/115 85/96/115 19/22/115
f 18/21/116 56/64/116 165/180/116 105/118/116
f 56/64/117 25/29/117 65/74/117 165/180/117
f 60/69/118 166/181/118 56/65/118 18/20/118
f 17/19/119 94/107/119 166/181/119 60/69/119
f 94/107/120 24/27/120 108/121/120 166/181/120
f 104/117/121 167/182/121 94/107/121 17/19/121
f 16/18/122 139/154/122 167/182/122 104/117/122
f 139/154/123 23/26/123 64/73/123 167/182/123
f 59/68/124 168/183/124 139/154/124 16/18/124
f 15/17/125 63/72/125 168/183/125 59/68/125
f 63/72/126 22/25/126 107/120/126 168/183/126
f 175/190/127 99/112/127 188/203/127 192/207/127
f 14/16/128 137/152/128 169/184/128 102/115/128
f 137/152/129 21/24/129 62/71/129 169/184/129
f 58/67/130 170/185/130 137/152/130 14/16/130
f 13/15/131 91/104/131 170/185/131 58/67/131
f 91/104/132 20/23/132 106/119/132 170/185/132
f 101/114/133 171/186/133 91/104/133 13/15/133
f 12/14/134 134/149/134 171/186/134 101/114/134
f 134/149/135 19/22/135 61/70/135 171/186/135
f 57/66/136 172/187/136 134/149/136 12/14/136
f 11/13/137 89/100/137 172/187/137 57/66/137
f 89/100/138 18/21/138 105/118/138 172/187/138
f 100/113/139 173/188/139 89/101/139 11/12/139
f 10/11/140 131/146/140 173/188/140 100/113/140
f 131/146/141 17/19/141 60/69/141 173/188/141
f 55/63/142 174/189/142 131/146/142 10/11/142
f 9/10/143 87/98/143 174/189/143 55/63/143
f 87/98/144 16/18/144 104/117/144 174/189/144
f 99/112/145 175/190/145 87/98/145 9/10/145
f 102/115/146 169/184/146 191/206/146 189/204/146
f 103/116/147 15/17/147 59/68/147 175/190/147
f 53/61/148 176/191/148 54/62/148 1/1/148
f 7/8/149 84/95/149 176/191/149 53/61/149
f 84/95/150 14/16/150 102/115/150 176/191/150
f 98/111/151 177/192/151 84/95/151 7/8/151
f 6/7/152 129/144/152 177/192/152 98/111/152
f 129/144/153 13/15/153 58/67/153 177/192/153
f 52/60/154 178/193/154 129/144/154 6/7/154
f 5/6/155 81/91/155 178/193/155 52/60/155
f 81/91/156 12/14/156 101/114/156 178/193/156
f 97/110/157 179/194/157 81/91/157 5/6/157
f 4/4/158 126/139/158 179/194/158 97/110/158
f 126/139/159 11/13/159 57/66/159 179/194/159
f 51/59/160 180/195/160 126/140/160 4/5/160
f 3/3/161 79/89/161 180/195/161 51/59/161
f 79/89/162 10/11/162 100/113/162 180/195/162
f 96/109/163 181/196/163 79/89/163 3/3/163
f 2/2/164 123/136/164 181/196/164 96/109/164
f 123/136/165 9/10/165 55/63/165 181/196/165
f 50/57/166 182/197/166 123/136/166 2/2/166
f 1/1/167 54/62/167 182/197/167 50/57/167
f 54/62/168 8/9/168 99/112/168 182/197/168
f 115/128/169 154/169/169 186/201/169 183/198/169
f 148/163/170 118/131/170 184/199/170 185/200/170
f 148/163/171 185/200/171 186/201/171 154/169/171 71/80/171
f 36/41/172 115/128/172 183/198/172 184/199/172 118/131/172
f 184/199/173 183/198/173 197/212/173 195/210/173
f 190/205/174 194/209/174 212/227/174 211/226/174
f 8/9/175 102/115/175 189/204/175 188/203/175 99/112/175
f 103/116/176 175/190/176 192/207/176 191/206/176 169/184/176
f 191/206/177 192/207/177 194/209/177 190/205/177
f 192/207/178 188/203/178 193/208/178 194/209/178
f 189/204/179 191/206/179 190/205/179 187/202/179
f 188/203/180 189/204/180 187/202/180 193/208/180
f 198/213/181 196/211/181 200/215/181 202/217/181
f 186/201/182 185/200/182 196/211/182 198/213/182
f 183/198/183 186/201/183 198/213/183 197/212/183
f 185/200/184 184/199/184 195/210/184 196/211/184
f 199/214/185 201/216/185 205/220/185 203/218/185
f 196/211/186 195/210/186 199/214/186 200/215/186
f 195/210/187 197/212/187 201/216/187 199/214/187
f 197/212/188 198/213/188 202/217/188 201/216/188
f 205/220/189 206/221/189 210/225/189 209/224/189
f 201/216/185 202/217/185 206/221/185 205/220/185
f 202/217/185 200/215/185 204/219/185 206/221/185
f 200/215/185 199/214/185 203/218/185 204/219/185
f 208/223/190 207/222/190 209/224/190 210/225/190
f 206/221/191 204/219/191 208/223/191 210/225/191
f 204/219/192 203/218/192 207/222/192 208/223/192
f 203/218/193 205/220/193 209/224/193 207/222/193
f 213/228/194 214/229/194 218/233/194 217/232/194
f 194/209/195 193/208/195 213/228/195 212/227/195
f 193/208/196 187/202/196 214/229/196 213/228/196
f 187/202/197 190/205/197 211/226/197 214/229/197
f 218/233/198 215/230/198 216/231/198 217/232/198
f 212/227/199 213/228/199 217/232/199 216/231/199
f 214/229/200 211/226/200 215/230/200 218/233/200
f 211/226/201 212/227/201 216/231/201 215/230/201
